CLASE 2 - Introducción a Tidyverse
…
Seleccionamos las variables de interés con el comando select.

eventos %>% select(motivo, region) # Variable(s) de interés.

# A tibble: 6,090 × 2
   motivo                        region              
   <chr>                         <chr>               
 1 Social (Otras agrupaciones)   V REGION VALPARAISO 
 2 Social (Otras agrupaciones)   REGION METROPOLITANA
 3 Social (Otras agrupaciones)   REGION METROPOLITANA
 4 Género (Feminista)            X REGION LOS LAGOS  
 5 Laboral                       X REGION LOS LAGOS  
 6 Laboral (Sindicato o empresa) VIII REGION BIO BIO 
 7 Social (Otras agrupaciones)   REGION METROPOLITANA
 8 Laboral                       REGION METROPOLITANA
 9 Laboral                       REGION METROPOLITANA
10 Social                        REGION METROPOLITANA
# ℹ 6,080 more rows

Filtramos con filter:

Cuando los casos de las variables son de tipo texto, deben ir en comillas. Por ejemplo "Paro Nacional"

Cuando los casos de la variable son de tipo número, van sin comillas. Por ejemplo: 2000.

Primero, queremos solo los eventos con motivo laboral.

Segundo, queremos los eventos con motivo laboral que ocurrieron en la región de valparaíso.

eventos %>% filter(motivo == "Laboral")

# A tibble: 188 × 9
   motivo  tipo      region n_asistentes fecha_inicio        hora_inicio        
   <chr>   <chr>     <chr>         <dbl> <dttm>              <dttm>             
 1 Laboral Manifest… X REG…           25 2022-12-30 00:00:00 1899-12-31 14:15:00
 2 Laboral Manifest… REGIO…           60 2022-12-29 00:00:00 1899-12-31 14:15:00
 3 Laboral Manifest… REGIO…           70 2022-12-29 00:00:00 1899-12-31 10:40:00
 4 Laboral Desorden… X REG…           40 2022-12-20 00:00:00 1899-12-31 14:20:00
 5 Laboral Desorden… X REG…           40 2022-12-19 00:00:00 1899-12-31 09:20:00
 6 Laboral Concentr… VIII …           40 2022-12-15 00:00:00 1899-12-31 11:00:00
 7 Laboral Concentr… VIII …           50 2022-12-07 00:00:00 1899-12-31 14:50:00
 8 Laboral Manifest… X REG…           22 2022-12-06 00:00:00 1899-12-31 11:30:00
 9 Laboral Concentr… VI RE…           37 2022-11-26 00:00:00 1899-12-31 10:50:00
10 Laboral Manifest… VIII …           50 2022-11-24 00:00:00 1899-12-31 10:15:00
# ℹ 178 more rows
# ℹ 3 more variables: fecha_termino <dttm>, hora_termino <dttm>, ...9 <lgl>

eventos %>% filter(motivo == "Laboral", region == "V REGION VALPARAISO") #Filtramos

# A tibble: 28 × 9
   motivo  tipo      region n_asistentes fecha_inicio        hora_inicio        
   <chr>   <chr>     <chr>         <dbl> <dttm>              <dttm>             
 1 Laboral Marcha c… V REG…           20 2022-09-15 00:00:00 1899-12-31 11:00:00
 2 Laboral Manifest… V REG…           35 2022-09-14 00:00:00 1899-12-31 09:40:00
 3 Laboral Manifest… V REG…           30 2022-09-12 00:00:00 1899-12-31 11:30:00
 4 Laboral HUELGAS   V REG…           70 2022-09-01 00:00:00 1899-12-31 08:40:00
 5 Laboral Manifest… V REG…           20 2022-09-01 00:00:00 1899-12-31 08:30:00
 6 Laboral Manifest… V REG…            1 2022-07-29 00:00:00 1899-12-31 13:45:00
 7 Laboral Marcha s… V REG…           20 2022-07-20 00:00:00 1899-12-31 09:00:00
 8 Laboral Manifest… V REG…           15 2022-06-01 00:00:00 1899-12-31 12:00:00
 9 Laboral Concentr… V REG…           20 2022-05-01 00:00:00 1899-12-31 12:00:00
10 Laboral Marcha s… V REG…           15 2022-04-08 00:00:00 1899-12-31 16:20:00
# ℹ 18 more rows
# ℹ 3 more variables: fecha_termino <dttm>, hora_termino <dttm>, ...9 <lgl>
…
# A tibble: 6 × 3
  tipo                    region                             fecha_inicio       
  <chr>                   <chr>                              <dttm>             
1 Manifestación           REGION METROPOLITANA               2022-12-30 00:00:00
2 Manifestación           XII REGION MAGALLANES Y ANT.CHILE… 2022-12-22 00:00:00
3 Manifestación           I REGION TARAPACA                  2022-12-21 00:00:00
4 Concentración           REGION METROPOLITANA               2022-12-17 00:00:00
5 Concentración           REGION METROPOLITANA               2022-12-16 00:00:00
6 Marcha sin autorización REGION METROPOLITANA               2022-12-12 00:00:00

Crear nuevas variables desde cero o a partir de las ya existentes.

eventos %>% mutate(anio_actual = 2024) %>% select(tipo, region, fecha_inicio, anio_actual)

# A tibble: 6,090 × 4
   tipo                    region               fecha_inicio        anio_actual
   <chr>                   <chr>                <dttm>                    <dbl>
 1 Manifestación           V REGION VALPARAISO  2022-12-31 00:00:00        2024
 2 Concentración           REGION METROPOLITANA 2022-12-30 00:00:00        2024
 3 Manifestación           REGION METROPOLITANA 2022-12-30 00:00:00        2024
 4 Marcha con autorización X REGION LOS LAGOS   2022-12-30 00:00:00        2024
 5 Manifestación           X REGION LOS LAGOS   2022-12-30 00:00:00        2024
 6 Manifestación           VIII REGION BIO BIO  2022-12-30 00:00:00        2024
 7 Manifestación           REGION METROPOLITANA 2022-12-30 00:00:00        2024
 8 Manifestación           REGION METROPOLITANA 2022-12-29 00:00:00        2024
 9 Manifestación           REGION METROPOLITANA 2022-12-29 00:00:00        2024
10 Manifestación           REGION METROPOLITANA 2022-12-29 00:00:00        2024
# ℹ 6,080 more rows

eventos %>% mutate(manifestantes_cien = n_asistentes * 100) %>% select(manifestantes_cien, n_asistentes)

# A tibble: 6,090 × 2
   manifestantes_cien n_asistentes
                <dbl>        <dbl>
 1               3000           30
 2               4000           40
 3               7000           70
 4               5000           50
 5               2500           25
 6               2500           25
 7              10000          100
 8               6000           60
 9               7000           70
10               1500           15
# ℹ 6,080 more rows

Crear una nueva variable con case_when .

eventos <- eventos %>%
  mutate(cat_asistentes = case_when(
    n_asistentes < 250 ~ "Pequeña",
    n_asistentes >= 250 & n_asistentes <= 1000 ~ "Mediana",
    n_asistentes > 1000 ~ "Masiva"
  ))

eventos %>% select(cat_asistentes, n_asistentes)

# A tibble: 6,090 × 2
   cat_asistentes n_asistentes
   <chr>                 <dbl>
 1 Pequeña                  30
 2 Pequeña                  40
 3 Pequeña                  70
 4 Pequeña                  50
 5 Pequeña                  25
 6 Pequeña                  25
 7 Pequeña                 100
 8 Pequeña                  60
 9 Pequeña                  70
10 Pequeña                  15
# ℹ 6,080 more rows
…
