CLASE 3 - Estadística y Visualización
…
Recodificación. A veces sale más fácil recodificar con el R base.

colnames(postulantes_anio)[1] <- "anio_postulacion"
colnames(postulantes_anio)[2] <- "genero"
colnames(postulantes_anio)[3] <- "fecha_nac"
colnames(postulantes_anio)[4] <- "edad"
colnames(postulantes_anio)[5] <- "comuna"
colnames(postulantes_anio)[6] <- "region"

Ahora, no existe una cantidad postulantes por año, por lo que es importante crea una variable que tenga algún número que permita la manipulación de datos continuos. Las dos formas de realizarlo.

postulantes_anio$n <- 1
postulantes_anio |> mutate(n = 1)

# A tibble: 8,510 × 7
   anio_postulacion genero    fecha_nac            edad comuna      region     n
              <dbl> <chr>     <dttm>              <dbl> <chr>       <chr>  <dbl>
 1             2018 MASCULINO 1997-05-05 00:00:00    20 LA FLORIDA  METRO…     1
 2             2018 MASCULINO 1998-07-24 00:00:00    19 PUENTE ALTO METRO…     1
 3             2018 MASCULINO 2000-06-05 00:00:00    17 PUENTE ALTO METRO…     1
 4             2018 MASCULINO 2000-07-24 00:00:00    17 TALAGANTE   METRO…     1
 5             2018 MASCULINO 2000-08-03 00:00:00    17 SAN BERNAR… METRO…     1
 6             2018 MASCULINO 2000-04-27 00:00:00    17 MAIPU       METRO…     1
 7             2018 MASCULINO 1999-09-30 00:00:00    18 ÑUÑOA       METRO…     1
 8             2018 MASCULINO 2000-07-26 00:00:00    17 LOS MUERMOS LOS L…     1
 9             2018 MASCULINO 2000-07-26 00:00:00    17 LOS MUERMOS LOS L…     1
10             2018 MASCULINO 2000-05-02 00:00:00    17 LAMPA       METRO…     1
# ℹ 8,500 more rows
…
Y seguir….

conteo4 <- postulantes_anio |> 
  group_by(anio_postulacion, genero, comuna) |> 
  summarize(total_n = sum(n, na.rm = TRUE)); conteo4

`summarise()` has grouped output by 'anio_postulacion', 'genero'. You can
override using the `.groups` argument.

# A tibble: 2,266 × 4
# Groups:   anio_postulacion, genero [12]
   anio_postulacion genero   comuna      total_n
              <dbl> <chr>    <chr>         <dbl>
 1             2018 FEMENINO ANCUD             2
 2             2018 FEMENINO ANGOL             5
 3             2018 FEMENINO ANTOFAGASTA       7
 4             2018 FEMENINO ARAUCO            7
 5             2018 FEMENINO ARICA             7
 6             2018 FEMENINO AYSEN             1
 7             2018 FEMENINO BUIN              5
 8             2018 FEMENINO BULNES            1
 9             2018 FEMENINO CABILDO           1
10             2018 FEMENINO CABRERO           2
# ℹ 2,256 more rows
…
